\begin{tikzpicture}[scale=0.83,arrow/.style={->},very thick,blue]
\newcommand{\rnainA}{X03715_1_288_361}
\newcommand{\rnainB}{AE004237_1_2976_}
\newcommand{\rnainC}{V00654_1_12038_1}
\newcommand{\rnainD}{J01435_1_264_194}
\newcommand{\rnainE}{X16886_1_781_711}

\newlength{\figheight}
\setlength{\figheight}{1.2cm}

\node (inpA) at (-0.5,0) {
\includegraphicscenter[height=1.2\figheight]{tRNA_5.out/input/\rnainA_ss}
\includegraphicscenter[trim=0 0 50 20,clip,height=\figheight]{tRNA_5.out/input/\rnainA_dp}
};
\node (inpB) at (2.5,0) {
\includegraphicscenter[height=\figheight]{tRNA_5.out/input/\rnainB_ss}
\includegraphicscenter[trim=0 0 50 20,clip,height=\figheight]{tRNA_5.out/input/\rnainB_dp}
};
\node (inpC) at (6,0) {
\includegraphicscenter[height=\figheight]{tRNA_5.out/input/\rnainC_ss}
\includegraphicscenter[trim=0 0 50 20,clip,height=\figheight]{tRNA_5.out/input/\rnainC_dp}
};
\node (inpD) at (9.5,0) {
\includegraphicscenter[height=\figheight]{tRNA_5.out/input/\rnainD_ss}
\includegraphicscenter[trim=0 0 50 20,clip,height=\figheight]{tRNA_5.out/input/\rnainD_dp}
};
\node (inpE) at (12.5,0) {
\includegraphicscenter[height=\figheight]{tRNA_5.out/input/\rnainE_ss}
\includegraphicscenter[trim=0 0 0 20,clip,height=\figheight]{tRNA_5.out/input/\rnainE_dp}
};

\node (intA) at (1,-3) {
\includegraphicscenter[height=\figheight]{tRNA_5.out/intermediates/intermediate1_alirna}
\includegraphicscenter[height=0.7\figheight]{tRNA_5.out/intermediates/intermediate1_aln}
\includegraphicscenter[trim=0 0 50 20,clip,height=\figheight]{tRNA_5.out/intermediates/intermediate1_dp}
};

\draw[arrow] (inpA) -- (intA);
\draw[arrow] (inpB) -- (intA);

\node (intB) at (4.5,-6) {
\includegraphicscenter[height=\figheight]{tRNA_5.out/intermediates/intermediate2_alirna}
\includegraphicscenter[height=0.7\figheight]{tRNA_5.out/intermediates/intermediate2_aln}
\includegraphicscenter[trim=0 0 0 20,clip,height=\figheight]{tRNA_5.out/intermediates/intermediate2_dp}
};

\draw[arrow] (intA) -- (intB);
\draw[arrow] (inpC) -- (intB);

\node (intC) at (11,-3) {
\includegraphicscenter[height=\figheight]{tRNA_5.out/intermediates/intermediate3_alirna}
\includegraphicscenter[height=0.7\figheight]{tRNA_5.out/intermediates/intermediate3_aln}
\includegraphicscenter[trim=0 0 0 20,clip,height=\figheight]{tRNA_5.out/intermediates/intermediate3_dp}
};

\draw[arrow] (inpD) -- (intC);
\draw[arrow] (inpE) -- (intC);

\node (intD) at (7.5,-9) {
\includegraphicscenter[height=\figheight]{tRNA_5.out/intermediates/intermediate4_alirna}
\includegraphicscenter[height=0.7\figheight]{tRNA_5.out/intermediates/intermediate4_aln}
\includegraphicscenter[trim=0 0 0 20,clip,height=\figheight]{tRNA_5.out/intermediates/intermediate4_dp}
};

\draw[arrow] (intB) -- (intD);
\draw[arrow] (intC) -- (intD);

\end{tikzpicture}
